…
## The following object is masked from 'package:purrr':
## 
##     discard
## The following object is masked from 'package:readr':
## 
##     col_factor
## 
## Attaching package: 'zoo'
## The following objects are masked from 'package:base':
## 
##     as.Date, as.Date.numeric
## udunits system database from /usr/share/xml/udunits
profData_temp
## $dimension
## # A tibble: 2,603 x 5
##    transect       dist        h      hma     distlm
##    <fct>           [m]      [m]      [m]        [m]
##  1 1        0.00000000 2.447498       NA         NA
##  2 1        0.04982810 2.447498 2.447221 0.04982810
##  3 1        0.09965621 2.446667 2.446944 0.09965621
##  4 1        0.14948432 2.446667 2.436445 0.14948432
##  5 1        0.19931242 2.416000 2.426222 0.19931242
##  6 1        0.24914053 2.416000 2.402000 0.24914053
##  7 1        0.29896863 2.374001 2.388000 0.29896863
##  8 1        0.34879674 2.374001 2.352666 0.34879674
##  9 1        0.39862484 2.309998 2.331332 0.39862484
## 10 1        0.44845295 2.309998 2.291665 0.44845295
## # … with 2,593 more rows
## 
## $dimensionless
## # A tibble: 2,603 x 3
##    transect   distlm    hma
##    <fct>       <dbl>  <dbl>
##  1 1        NA       NA    
##  2 1         0        1    
##  3 1         0.00678  1.000
##  4 1         0.0136   0.996
##  5 1         0.0203   0.991
##  6 1         0.0271   0.982
##  7 1         0.0339   0.976
##  8 1         0.0407   0.961
##  9 1         0.0475   0.953
## 10 1         0.0542   0.936
## # … with 2,593 more rows
## 
## $dimensionlessrawdistance
## # A tibble: 2,603 x 3
##    transect   dist    hma
##    <fct>     <dbl>  <dbl>
##  1 1        0      NA    
##  2 1        0.0143  1    
##  3 1        0.0286  1.000
##  4 1        0.0429  0.996
##  5 1        0.0571  0.991
##  6 1        0.0714  0.982
##  7 1        0.0857  0.976
##  8 1        0.1000  0.961
##  9 1        0.114   0.953
## 10 1        0.129   0.936
## # … with 2,593 more rows
## 
## $concavityindex
…
