…
## The following object is masked from 'package:purrr':
## 
##     discard
## The following object is masked from 'package:readr':
## 
##     col_factor
## 
## Attaching package: 'zoo'
## The following objects are masked from 'package:base':
## 
##     as.Date, as.Date.numeric
## udunits system database from /usr/share/xml/udunits
profData_temp
## $dimension
## # A tibble: 1,933 x 5
##    transect       dist         h       hma     distlm
##    <fct>           [m]       [m]       [m]        [m]
##  1 1        0.00000000 0.6557159        NA         NA
##  2 1        0.04959511 0.6225014 0.6460730 0.04959511
##  3 1        0.09919021 0.6600018 0.6283340 0.09919021
##  4 1        0.14878532 0.6024990 0.6216666 0.14878532
##  5 1        0.19838043 0.6024990 0.5916665 0.19838043
##  6 1        0.24797553 0.5700016 0.5808341 0.24797553
##  7 1        0.29757064 0.5700016 0.5708345 0.29757064
##  8 1        0.34716575 0.5725002 0.5716674 0.34716575
##  9 1        0.39676085 0.5725002 0.5626195 0.39676085
## 10 1        0.44635596 0.5428581 0.5527388 0.44635596
## # … with 1,923 more rows
## 
## $dimensionless
## # A tibble: 1,933 x 3
##    transect  distlm    hma
##    <fct>      <dbl>  <dbl>
##  1 1        NA      NA    
##  2 1         0       1    
##  3 1         0.0196  0.973
##  4 1         0.0391  0.962
##  5 1         0.0587  0.916
##  6 1         0.0782  0.899
##  7 1         0.0978  0.884
##  8 1         0.117   0.885
##  9 1         0.137   0.871
## 10 1         0.156   0.856
## # … with 1,923 more rows
## 
## $dimensionlessrawdistance
## # A tibble: 1,933 x 3
##    transect   dist    hma
##    <fct>     <dbl>  <dbl>
##  1 1        0      NA    
##  2 1        0.0189  1    
##  3 1        0.0377  0.973
##  4 1        0.0566  0.962
##  5 1        0.0755  0.916
##  6 1        0.0943  0.899
##  7 1        0.113   0.884
##  8 1        0.132   0.885
##  9 1        0.151   0.871
## 10 1        0.170   0.856
## # … with 1,923 more rows
## 
## $concavityindex
## # A tibble: 48 x 2
##    transect       ci
##    <fct>       <dbl>
##  1 1         0.00491
##  2 10       -0.0376 
##  3 11       -0.137  
##  4 12       -0.0752 
##  5 13       -0.0507 
##  6 14        0.0308 
##  7 15        0.00645
##  8 16       -0.0192 
##  9 17       -0.0404 
## 10 18        0.0260 
## # … with 38 more rows
## 
## $concavityindexrawdistance
## # A tibble: 48 x 2
##    transect      ci
##    <fct>      <dbl>
##  1 1         0.0400
##  2 10       -0.444 
##  3 11       -0.104 
##  4 12       -0.183 
##  5 13       -0.131 
##  6 14       -0.237 
##  7 15       -0.0116
##  8 16       -0.170 
##  9 17       -0.220 
## 10 18       -0.279 
## # … with 38 more rows
## 
## $slope
## # A tibble: 48 x 10
##    transect       dh  ddistlm    slope slopeRad slopeDeg distrawd sloperawd
##    <fct>         [m]      [m]      [1]    [rad]      [°]      [m]       [1]
##  1 1        0.64607… 2.536063 -0.2514… -0.2463… -14.112… 2.628541 -0.25129…
##  2 10       0.36474… 3.224920 -0.1138… -0.1133…  -6.492… 2.100700 -0.11046…
##  3 11       0.38044… 2.783110 -0.1493… -0.1482…  -8.495… 2.864696 -0.14904…
##  4 12       0.42416… 3.657225 -0.1222… -0.1215…  -6.967… 3.290392 -0.12197…
##  5 13       0.40607… 3.344898 -0.1197… -0.1191…  -6.826… 3.104072 -0.11908…
##  6 14       0.33585… 4.118233 -0.0787… -0.0785…  -4.502… 3.106799 -0.07828…
##  7 15       0.35848… 3.419921 -0.1024… -0.1021…  -5.850… 3.347936 -0.10238…
##  8 16       0.38036… 4.211063 -0.0915… -0.0912…  -5.230… 3.620599 -0.09140…
##  9 17       0.32417… 4.344921 -0.0733… -0.0731…  -4.192… 3.662199 -0.07282…
## 10 18       0.22000… 3.952029 -0.0531… -0.0530…  -3.041… 2.877792 -0.05228…
## # … with 38 more rows, and 2 more variables: sloperawdRad [rad],
## #   sloperawdDeg [°]
```
…
