…
## Attaching package: 'scales'
## The following object is masked from 'package:purrr':
## 
##     discard
## The following object is masked from 'package:readr':
## 
##     col_factor
## 
## Attaching package: 'zoo'
## The following objects are masked from 'package:base':
## 
##     as.Date, as.Date.numeric
prof
## [[1]]
## # A tibble: 224 x 4
## # Groups:   transect [7]
##    transect   dist     h    hma
##    <fct>     <dbl> <dbl>  <dbl>
##  1 1        0      1     NA    
##  2 1        0.0345 0.969 NA    
##  3 1        0.0690 0.933 NA    
##  4 1        0.103  0.933 NA    
##  5 1        0.138  0.874  0.867
##  6 1        0.172  0.866  0.837
##  7 1        0.207  0.864  0.807
##  8 1        0.241  0.786  0.777
##  9 1        0.276  0.767  0.739
## 10 1        0.310  0.677  0.703
## # … with 214 more rows
## 
## [[2]]
## Warning: Removed 9 rows containing missing values (geom_path).
```
…
